<?xml version="1.0" encoding="UTF-8" standalone="no"?>
<!-- Created with Inkscape (http://www.inkscape.org/) -->

<svg
   width="196"
   height="196"
   viewBox="0 0 51.858333 51.858332"
   version="1.1"
   id="svg1"
   xml:space="preserve"
   inkscape:version="1.2.2 (b0a8486541, 2022-12-01)"
   sodipodi:docname="favicon.svg"
   xmlns:inkscape="http://www.inkscape.org/namespaces/inkscape"
   xmlns:sodipodi="http://sodipodi.sourceforge.net/DTD/sodipodi-0.dtd"
   xmlns="http://www.w3.org/2000/svg"
   xmlns:svg="http://www.w3.org/2000/svg"><sodipodi:namedview
     id="namedview1"
     pagecolor="#ffffff"
     bordercolor="#999999"
     borderopacity="1"
     inkscape:showpageshadow="2"
     inkscape:pageopacity="0"
     inkscape:pagecheckerboard="0"
     inkscape:deskcolor="#d1d1d1"
     inkscape:document-units="mm"
     inkscape:zoom="0.70385805"
     inkscape:cx="484.47269"
     inkscape:cy="440.42971"
     inkscape:window-width="1920"
     inkscape:window-height="1011"
     inkscape:window-x="0"
     inkscape:window-y="32"
     inkscape:window-maximized="1"
     inkscape:current-layer="layer1"
     showguides="false"
     showgrid="false" /><defs
     id="defs1"><clipPath
       clipPathUnits="userSpaceOnUse"
       id="clipPath89"><path
         id="path89"
         style="stroke-width:0.1;stroke-linecap:square;paint-order:markers fill stroke;stop-color:#000000"
         d="M 438.25066,553.76374 H 1298.1212 V 755.15928 H 438.25066 Z"
         sodipodi:nodetypes="ccccc" /></clipPath><clipPath
       clipPathUnits="userSpaceOnUse"
       id="clipPath55"><path
         id="path55"
         style="stroke-width:0.1;stroke-linecap:square;paint-order:markers fill stroke;stop-color:#000000"
         d="m 1736.6147,-745.57287 h 1589.4765 v 72.46715 H 1736.6147 Z" /></clipPath><clipPath
       clipPathUnits="userSpaceOnUse"
       id="clipPath78"><rect
         style="fill:#000000;stroke:#000000;stroke-width:0;stroke-linejoin:bevel;paint-order:stroke markers fill;stop-color:#000000"
         id="rect5-4"
         width="20"
         height="200"
         x="530"
         y="595" /></clipPath><clipPath
       clipPathUnits="userSpaceOnUse"
       id="clipPath51"><path
         id="path51"
         style="stroke-width:0.0999999;stroke-linecap:square;paint-order:markers fill stroke;stop-color:#000000"
         d="m 1806.4991,-753.5228 h 1637.2646 v 66.90533 H 1806.4991 Z" /></clipPath><clipPath
       clipPathUnits="userSpaceOnUse"
       id="clipPath5"><path
         id="path72"
         style="stroke-width:0.1;stroke-linecap:square;paint-order:markers fill stroke;stop-color:#000000"
         d="M 438.25066,553.76374 H 1298.1212 V 755.15928 H 438.25066 Z"
         sodipodi:nodetypes="ccccc" /></clipPath><clipPath
       clipPathUnits="userSpaceOnUse"
       id="clipPath52"><path
         id="path52"
         style="stroke-width:0.1;stroke-linecap:square;paint-order:markers fill stroke;stop-color:#000000"
         d="m -880.82767,-187.29769 h 1640.84 v 73.28155 h -1640.84 z" /></clipPath><linearGradient
       id="swatch59"
       inkscape:swatch="solid"><stop
         style="stop-color:#1252ff;stop-opacity:1;"
         offset="0"
         id="stop59" /></linearGradient><inkscape:path-effect
       effect="bend_path"
       id="path-effect10"
       is_visible="true"
       lpeversion="1"
       bendpath="m 67.977116,180.16317 c 55.322914,-12.01827 111.347214,-10.0089 167.771484,0"
       prop_scale="1"
       scale_y_rel="false"
       vertical="false"
       hide_knot="false"
       bendpath-nodetypes="cc" /></defs><g
     inkscape:label="Layer 1"
     inkscape:groupmode="layer"
     id="layer1"><path
       style="fill:#ffd20a;fill-opacity:1;stroke:#000000;stroke-width:0;stroke-linecap:square;stroke-miterlimit:0;stroke-dasharray:none;paint-order:markers stroke fill"
       d=""
       id="path27"
       transform="scale(0.26458333)" /><path
       style="fill:#ffd20a;fill-opacity:1;stroke:#ffd20a;stroke-width:2.95504;stroke-linecap:square;stroke-miterlimit:0;stroke-dasharray:none;stroke-opacity:1;paint-order:markers stroke fill"
       d=""
       id="path33"
       transform="scale(0.26458333)" /><path
       sodipodi:type="spiral"
       style="fill:none;fill-rule:evenodd;stroke:#ff1c00;stroke-width:4.265;stroke-dasharray:12.795, 4.265;stroke-dashoffset:0;stroke-opacity:1"
       id="path3"
       sodipodi:cx="147.92317"
       sodipodi:cy="60.867908"
       sodipodi:expansion="1"
       sodipodi:revolution="1.8668311"
       sodipodi:radius="36.734978"
       sodipodi:argument="-9.9123125"
       sodipodi:t0="0.15687868"
       d="m 146.67566,55.24162 c 3.84162,-3.342222 9.52788,-0.587896 11.67658,3.313853 3.66398,6.653252 -0.55847,14.673355 -7.05171,17.544292 -9.33196,4.126055 -19.8889,-1.696633 -23.412,-10.789581 -4.64055,-11.977042 2.82905,-25.132519 14.52745,-29.279701 14.60953,-5.179207 30.39038,3.958045 35.1474,18.26531 5.73084,17.236115 -5.08495,35.65651 -22.00317,41.015109 -5.34473,1.692864 -11.07128,2.082252 -16.60209,1.181245"
       transform="matrix(-0.69924008,0,0,0.69924008,132.85792,-20.787342)" /></g></svg>
